…
keywords: ""
slug: olympicmedals
title: Olympic Meals
---

List of medals

olympics_2020_medals <- medals[[3]] %>% 
    slice(1:(n()-1))
olympics_2020_medals

## # A tibble: 93 × 6
##    rank  noc            gold silver bronze total
##    <chr> <chr>         <int>  <int>  <int> <int>
##  1 1     United States    39     41     33   113
##  2 2     China            38     32     19    89
##  3 3     Japan*           27     14     17    58
##  4 4     Great Britain    22     20     22    64
##  5 5     ROC              20     28     23    71
##  6 6     Australia        17      7     22    46
##  7 7     Netherlands      10     12     14    36
##  8 8     France           10     12     11    33
##  9 9     Germany          10     11     16    37
## 10 10    Italy            10     10     20    40
## # … with 83 more rows
…
