…
# ________________________________________________________
#add colour and region
model4 <- lm(price ~ miles + engine + car_age + colour + region, data = prius)

# get regression output table
model4 %>% 
  get_regression_table()

## # A tibble: 33 × 7
##    term               estimate std_error statistic p_value  lower_ci  upper_ci
##    <chr>                 <dbl>     <dbl>     <dbl>   <dbl>     <dbl>     <dbl>
##  1 intercept         17620.     1366.       12.9     0     14926.    20313.   
##  2 miles                -0.026     0.002   -10.9     0        -0.031    -0.021
##  3 engine: 1798        748.      355.        2.11    0.036    47.7    1448.   
##  4 car_age           -1023.       57.4     -17.8     0     -1136.     -910.   
##  5 colour: blue        -13.6     371.       -0.037   0.971  -745.      718.   
##  6 colour: grey        292.      428.        0.681   0.497  -553.     1137.   
##  7 colour: red        -147.      469.       -0.314   0.754 -1072.      777.   
##  8 colour: silver     -333.      302.       -1.10    0.271  -928.      262.   
##  9 colour: white       310.      320.        0.97    0.333  -320.      940.   
## 10 region: Berkshire  -283.     1963.       -0.144   0.886 -4153.     3588.   
## # … with 23 more rows
…
